<svg class="svgIcon" height="16px" width="16px" version="1.1" viewBox="0 0 16 16" x="0px" xmlns="http://www.w3.org/2000/svg" xmlns:xlink="http://www.w3.org/1999/xlink" xml:space="preserve" y="0px">

<g fill="none" fill-rule="evenodd" stroke="none" stroke-width="1"><g transform="translate(-712.000000, -1096.000000)">
<g stroke="#ffffff" stroke-linecap="round" stroke-linejoin="round" stroke-width="1.5" transform="translate(709.000000, 320.000000)"><path d="M5.833,778.833 L16.167,789.167"></path><path d="M16.167,778.833 L5.833,789.167"></path></g>
</g>
</g>
</svg>